pwnlandia@shell-web:/problems/3effd104fc674eb6865ebceeffc3bdc8$ for i
in {0..4096}; do ./bashloop $i; done > ~/foo.txt
pwnlandia@shell-web:/problems/3effd104fc674eb6865ebceeffc3bdc8$ egrep
-v Nope ~/foo.txt
Yay! That's the number! Here be the flag: d968d0e2c5f8e01a252744cd8040
7392

